Final Project
…
Area Name: The 21 Geographic Areas or Patrol Divisions that it is responsible for. For example 77th Street Division is located at the intersection of South Broadway and 77th Street

Crm Cd Desc: Defined which crime occurred.

Vict Age: The age of the injured individual.

Vict Sex: The sex of the victim.

LAT: Latitute.

LON: Lontitute.

By EDA, there are 147947 rows and 28 columns in the original crime 2020 to present dataset. We found that there are numerous observations in the dataset, so we decide to focus on the particular parts.

## # A tibble: 21 x 2
##    `AREA NAME`     n
##    <chr>       <int>
##  1 77th Street  9744
##  2 Central      8765
##  3 Pacific      8366
##  4 Southwest    8363
##  5 Southeast    8073
##  6 Newton       7617
##  7 Hollywood    7440
##  8 N Hollywood  7423
##  9 Olympic      7177
## 10 Wilshire     6890
## # … with 11 more rows
…
Female is the the more dangerous sex group at the location of 77th Street.

## # A tibble: 128 x 2
##    `Crm Cd Desc`                                               n
##    <chr>                                                   <int>
##  1 VEHICLE - STOLEN                                        15388
##  2 BATTERY - SIMPLE ASSAULT                                12726
##  3 VANDALISM - FELONY ($400 & OVER, ALL CHURCH VANDALISMS)  9832
##  4 BURGLARY FROM VEHICLE                                    9722
##  5 BURGLARY                                                 9595
##  6 ASSAULT WITH DEADLY WEAPON, AGGRAVATED ASSAULT           8604
##  7 INTIMATE PARTNER - SIMPLE ASSAULT                        8331
##  8 THEFT PLAIN - PETTY ($950 & UNDER)                       8000
##  9 THEFT FROM MOTOR VEHICLE - PETTY ($950 & UNDER)          7478
## 10 VANDALISM - MISDEAMEANOR ($399 OR UNDER)                 5375
## # … with 118 more rows
…
